{
  "root": true,
  "project": {
    "name": "Heart Cry Ensemble"
  },
  "api": {
    "projectId": "vqkxtmab",
    "dataset": "production"
  },
  "plugins": [
    "@sanity/base",
    "@sanity/components",
    "@sanity/default-layout",
    "@sanity/default-login",
    "@sanity/desk-tool",
    "@sanity/dashboard",
    "dashboard-widget-netlify"
  ],
  "parts": [
    {
      "name": "part:@sanity/base/schema",
      "path": "./schemas/schema.js"
    },
    {
      "name": "part:@sanity/desk-tool/structure",
      "path": "./dashboard/deskStructure.js"
    },
    {
      "implements": "part:@sanity/base/document-actions/resolver",
      "path": "./dashboard/documentActions.js"
    },
    {
      "implements": "part:@sanity/dashboard/config",
      "path": "./dashboard/dashboardConfig.js"
    },
    {
      "implements": "part:@sanity/base/theme/variables/override-style",
      "path": "./styles/variables.css"
    }
  ]
}
